%YAML 1.1
%TAG !u! tag:unity3d.com,2011:
--- !u!1 &6891346687552380250
GameObject:
  m_ObjectHideFlags: 0
  m_CorrespondingSourceObject: {fileID: 0}
  m_PrefabInstance: {fileID: 0}
  m_PrefabAsset: {fileID: 0}
  serializedVersion: 6
  m_Component:
  - component: {fileID: 8089415104412559975}
  - component: {fileID: 4863985275231807729}
  - component: {fileID: 3586388716469919300}
  m_Layer: 0
  m_Name: Layer1
  m_TagString: Untagged
  m_Icon: {fileID: 0}
  m_NavMeshLayer: 0
  m_StaticEditorFlags: 0
  m_IsActive: 1
--- !u!4 &8089415104412559975
Transform:
  m_ObjectHideFlags: 0
  m_CorrespondingSourceObject: {fileID: 0}
  m_PrefabInstance: {fileID: 0}
  m_PrefabAsset: {fileID: 0}
  m_GameObject: {fileID: 6891346687552380250}
  m_LocalRotation: {x: -0, y: -0, z: -0, w: 1}
  m_LocalPosition: {x: 0, y: 0, z: 0}
  m_LocalScale: {x: 1, y: 1, z: 1}
  m_Children: []
  m_Father: {fileID: 4779725961707120858}
  m_RootOrder: 0
  m_LocalEulerAnglesHint: {x: 0, y: 0, z: 0}
--- !u!1839735485 &4863985275231807729
Tilemap:
  m_ObjectHideFlags: 0
  m_CorrespondingSourceObject: {fileID: 0}
  m_PrefabInstance: {fileID: 0}
  m_PrefabAsset: {fileID: 0}
  m_GameObject: {fileID: 6891346687552380250}
  m_Enabled: 1
  m_Tiles:
  - first: {x: -2, y: -5, z: 0}
    second:
      serializedVersion: 2
      m_TileIndex: 30
      m_TileSpriteIndex: 30
      m_TileMatrixIndex: 0
      m_TileColorIndex: 0
      m_TileObjectToInstantiateIndex: 65535
      dummyAlignment: 0
      m_AllTileFlags: 1073741825
  - first: {x: -1, y: -5, z: 0}
    second:
      serializedVersion: 2
      m_TileIndex: 31
      m_TileSpriteIndex: 31
      m_TileMatrixIndex: 0
      m_TileColorIndex: 0
      m_TileObjectToInstantiateIndex: 65535
      dummyAlignment: 0
      m_AllTileFlags: 1073741825
  - first: {x: 0, y: -5, z: 0}
    second:
      serializedVersion: 2
      m_TileIndex: 32
      m_TileSpriteIndex: 32
      m_TileMatrixIndex: 0
      m_TileColorIndex: 0
      m_TileObjectToInstantiateIndex: 65535
      dummyAlignment: 0
      m_AllTileFlags: 1073741825
  - first: {x: 1, y: -5, z: 0}
    second:
      serializedVersion: 2
      m_TileIndex: 33
      m_TileSpriteIndex: 33
      m_TileMatrixIndex: 0
      m_TileColorIndex: 0
      m_TileObjectToInstantiateIndex: 65535
      dummyAlignment: 0
      m_AllTileFlags: 1073741825
  - first: {x: 2, y: -5, z: 0}
    second:
      serializedVersion: 2
      m_TileIndex: 34
      m_TileSpriteIndex: 34
      m_TileMatrixIndex: 0
      m_TileColorIndex: 0
      m_TileObjectToInstantiateIndex: 65535
      dummyAlignment: 0
      m_AllTileFlags: 1073741825
  - first: {x: 3, y: -5, z: 0}
    second:
      serializedVersion: 2
      m_TileIndex: 35
      m_TileSpriteIndex: 35
      m_TileMatrixIndex: 0
      m_TileColorIndex: 0
      m_TileObjectToInstantiateIndex: 65535
      dummyAlignment: 0
      m_AllTileFlags: 1073741825
  - first: {x: -2, y: -4, z: 0}
    second:
      serializedVersion: 2
      m_TileIndex: 24
      m_TileSpriteIndex: 24
      m_TileMatrixIndex: 0
      m_TileColorIndex: 0
      m_TileObjectToInstantiateIndex: 65535
      dummyAlignment: 0
      m_AllTileFlags: 1073741825
  - first: {x: -1, y: -4, z: 0}
    second:
      serializedVersion: 2
      m_TileIndex: 25
      m_TileSpriteIndex: 25
      m_TileMatrixIndex: 0
      m_TileColorIndex: 0
      m_TileObjectToInstantiateIndex: 65535
      dummyAlignment: 0
      m_AllTileFlags: 1073741825
  - first: {x: 0, y: -4, z: 0}
    second:
      serializedVersion: 2
      m_TileIndex: 26
      m_TileSpriteIndex: 26
      m_TileMatrixIndex: 0
      m_TileColorIndex: 0
      m_TileObjectToInstantiateIndex: 65535
      dummyAlignment: 0
      m_AllTileFlags: 1073741825
  - first: {x: 1, y: -4, z: 0}
    second:
      serializedVersion: 2
      m_TileIndex: 27
      m_TileSpriteIndex: 27
      m_TileMatrixIndex: 0
      m_TileColorIndex: 0
      m_TileObjectToInstantiateIndex: 65535
      dummyAlignment: 0
      m_AllTileFlags: 1073741825
  - first: {x: 2, y: -4, z: 0}
    second:
      serializedVersion: 2
      m_TileIndex: 28
      m_TileSpriteIndex: 28
      m_TileMatrixIndex: 0
      m_TileColorIndex: 0
      m_TileObjectToInstantiateIndex: 65535
      dummyAlignment: 0
      m_AllTileFlags: 1073741825
  - first: {x: 3, y: -4, z: 0}
    second:
      serializedVersion: 2
      m_TileIndex: 29
      m_TileSpriteIndex: 29
      m_TileMatrixIndex: 0
      m_TileColorIndex: 0
      m_TileObjectToInstantiateIndex: 65535
      dummyAlignment: 0
      m_AllTileFlags: 1073741825
  - first: {x: -2, y: -3, z: 0}
    second:
      serializedVersion: 2
      m_TileIndex: 18
      m_TileSpriteIndex: 18
      m_TileMatrixIndex: 0
      m_TileColorIndex: 0
      m_TileObjectToInstantiateIndex: 65535
      dummyAlignment: 0
      m_AllTileFlags: 1073741825
  - first: {x: -1, y: -3, z: 0}
    second:
      serializedVersion: 2
      m_TileIndex: 19
      m_TileSpriteIndex: 19
      m_TileMatrixIndex: 0
      m_TileColorIndex: 0
      m_TileObjectToInstantiateIndex: 65535
      dummyAlignment: 0
      m_AllTileFlags: 1073741825
  - first: {x: 0, y: -3, z: 0}
    second:
      serializedVersion: 2
      m_TileIndex: 20
      m_TileSpriteIndex: 20
      m_TileMatrixIndex: 0
      m_TileColorIndex: 0
      m_TileObjectToInstantiateIndex: 65535
      dummyAlignment: 0
      m_AllTileFlags: 1073741825
  - first: {x: 1, y: -3, z: 0}
    second:
      serializedVersion: 2
      m_TileIndex: 21
      m_TileSpriteIndex: 21
      m_TileMatrixIndex: 0
      m_TileColorIndex: 0
      m_TileObjectToInstantiateIndex: 65535
      dummyAlignment: 0
      m_AllTileFlags: 1073741825
  - first: {x: 2, y: -3, z: 0}
    second:
      serializedVersion: 2
      m_TileIndex: 22
      m_TileSpriteIndex: 22
      m_TileMatrixIndex: 0
      m_TileColorIndex: 0
      m_TileObjectToInstantiateIndex: 65535
      dummyAlignment: 0
      m_AllTileFlags: 1073741825
  - first: {x: 3, y: -3, z: 0}
    second:
      serializedVersion: 2
      m_TileIndex: 23
      m_TileSpriteIndex: 23
      m_TileMatrixIndex: 0
      m_TileColorIndex: 0
      m_TileObjectToInstantiateIndex: 65535
      dummyAlignment: 0
      m_AllTileFlags: 1073741825
  - first: {x: -2, y: -2, z: 0}
    second:
      serializedVersion: 2
      m_TileIndex: 12
      m_TileSpriteIndex: 12
      m_TileMatrixIndex: 0
      m_TileColorIndex: 0
      m_TileObjectToInstantiateIndex: 65535
      dummyAlignment: 0
      m_AllTileFlags: 1073741825
  - first: {x: -1, y: -2, z: 0}
    second:
      serializedVersion: 2
      m_TileIndex: 13
      m_TileSpriteIndex: 13
      m_TileMatrixIndex: 0
      m_TileColorIndex: 0
      m_TileObjectToInstantiateIndex: 65535
      dummyAlignment: 0
      m_AllTileFlags: 1073741825
  - first: {x: 0, y: -2, z: 0}
    second:
      serializedVersion: 2
      m_TileIndex: 14
      m_TileSpriteIndex: 14
      m_TileMatrixIndex: 0
      m_TileColorIndex: 0
      m_TileObjectToInstantiateIndex: 65535
      dummyAlignment: 0
      m_AllTileFlags: 1073741825
  - first: {x: 1, y: -2, z: 0}
    second:
      serializedVersion: 2
      m_TileIndex: 15
      m_TileSpriteIndex: 15
      m_TileMatrixIndex: 0
      m_TileColorIndex: 0
      m_TileObjectToInstantiateIndex: 65535
      dummyAlignment: 0
      m_AllTileFlags: 1073741825
  - first: {x: 2, y: -2, z: 0}
    second:
      serializedVersion: 2
      m_TileIndex: 16
      m_TileSpriteIndex: 16
      m_TileMatrixIndex: 0
      m_TileColorIndex: 0
      m_TileObjectToInstantiateIndex: 65535
      dummyAlignment: 0
      m_AllTileFlags: 1073741825
  - first: {x: 3, y: -2, z: 0}
    second:
      serializedVersion: 2
      m_TileIndex: 17
      m_TileSpriteIndex: 17
      m_TileMatrixIndex: 0
      m_TileColorIndex: 0
      m_TileObjectToInstantiateIndex: 65535
      dummyAlignment: 0
      m_AllTileFlags: 1073741825
  - first: {x: -2, y: -1, z: 0}
    second:
      serializedVersion: 2
      m_TileIndex: 6
      m_TileSpriteIndex: 6
      m_TileMatrixIndex: 0
      m_TileColorIndex: 0
      m_TileObjectToInstantiateIndex: 65535
      dummyAlignment: 0
      m_AllTileFlags: 1073741825
  - first: {x: -1, y: -1, z: 0}
    second:
      serializedVersion: 2
      m_TileIndex: 7
      m_TileSpriteIndex: 7
      m_TileMatrixIndex: 0
      m_TileColorIndex: 0
      m_TileObjectToInstantiateIndex: 65535
      dummyAlignment: 0
      m_AllTileFlags: 1073741825
  - first: {x: 0, y: -1, z: 0}
    second:
      serializedVersion: 2
      m_TileIndex: 8
      m_TileSpriteIndex: 8
      m_TileMatrixIndex: 0
      m_TileColorIndex: 0
      m_TileObjectToInstantiateIndex: 65535
      dummyAlignment: 0
      m_AllTileFlags: 1073741825
  - first: {x: 1, y: -1, z: 0}
    second:
      serializedVersion: 2
      m_TileIndex: 9
      m_TileSpriteIndex: 9
      m_TileMatrixIndex: 0
      m_TileColorIndex: 0
      m_TileObjectToInstantiateIndex: 65535
      dummyAlignment: 0
      m_AllTileFlags: 1073741825
  - first: {x: 2, y: -1, z: 0}
    second:
      serializedVersion: 2
      m_TileIndex: 10
      m_TileSpriteIndex: 10
      m_TileMatrixIndex: 0
      m_TileColorIndex: 0
      m_TileObjectToInstantiateIndex: 65535
      dummyAlignment: 0
      m_AllTileFlags: 1073741825
  - first: {x: 3, y: -1, z: 0}
    second:
      serializedVersion: 2
      m_TileIndex: 11
      m_TileSpriteIndex: 11
      m_TileMatrixIndex: 0
      m_TileColorIndex: 0
      m_TileObjectToInstantiateIndex: 65535
      dummyAlignment: 0
      m_AllTileFlags: 1073741825
  - first: {x: -2, y: 0, z: 0}
    second:
      serializedVersion: 2
      m_TileIndex: 0
      m_TileSpriteIndex: 0
      m_TileMatrixIndex: 0
      m_TileColorIndex: 0
      m_TileObjectToInstantiateIndex: 65535
      dummyAlignment: 0
      m_AllTileFlags: 1073741825
  - first: {x: -1, y: 0, z: 0}
    second:
      serializedVersion: 2
      m_TileIndex: 1
      m_TileSpriteIndex: 1
      m_TileMatrixIndex: 0
      m_TileColorIndex: 0
      m_TileObjectToInstantiateIndex: 65535
      dummyAlignment: 0
      m_AllTileFlags: 1073741825
  - first: {x: 0, y: 0, z: 0}
    second:
      serializedVersion: 2
      m_TileIndex: 2
      m_TileSpriteIndex: 2
      m_TileMatrixIndex: 0
      m_TileColorIndex: 0
      m_TileObjectToInstantiateIndex: 65535
      dummyAlignment: 0
      m_AllTileFlags: 1073741825
  - first: {x: 1, y: 0, z: 0}
    second:
      serializedVersion: 2
      m_TileIndex: 3
      m_TileSpriteIndex: 3
      m_TileMatrixIndex: 0
      m_TileColorIndex: 0
      m_TileObjectToInstantiateIndex: 65535
      dummyAlignment: 0
      m_AllTileFlags: 1073741825
  - first: {x: 2, y: 0, z: 0}
    second:
      serializedVersion: 2
      m_TileIndex: 4
      m_TileSpriteIndex: 4
      m_TileMatrixIndex: 0
      m_TileColorIndex: 0
      m_TileObjectToInstantiateIndex: 65535
      dummyAlignment: 0
      m_AllTileFlags: 1073741825
  - first: {x: 3, y: 0, z: 0}
    second:
      serializedVersion: 2
      m_TileIndex: 5
      m_TileSpriteIndex: 5
      m_TileMatrixIndex: 0
      m_TileColorIndex: 0
      m_TileObjectToInstantiateIndex: 65535
      dummyAlignment: 0
      m_AllTileFlags: 1073741825
  - first: {x: 5, y: 0, z: 0}
    second:
      serializedVersion: 2
      m_TileIndex: 36
      m_TileSpriteIndex: 36
      m_TileMatrixIndex: 0
      m_TileColorIndex: 0
      m_TileObjectToInstantiateIndex: 65535
      dummyAlignment: 0
      m_AllTileFlags: 1073741825
  m_AnimatedTiles: {}
  m_TileAssetArray:
  - m_RefCount: 1
    m_Data: {fileID: 11400000, guid: eb5e57f9a0498264c9830a1a649b4b1b, type: 2}
  - m_RefCount: 1
    m_Data: {fileID: 11400000, guid: 002edc9df90494c409be921f3ca9061c, type: 2}
  - m_RefCount: 1
    m_Data: {fileID: 11400000, guid: 98126e93a293df443bb2ad39359776ab, type: 2}
  - m_RefCount: 1
    m_Data: {fileID: 11400000, guid: 70f0f92aeafa0ff43a3bf44b6661ab2c, type: 2}
  - m_RefCount: 1
    m_Data: {fileID: 11400000, guid: a1b02dd21fa1f1649a3c2c5b3b7f4ac7, type: 2}
  - m_RefCount: 1
    m_Data: {fileID: 11400000, guid: 822569e806cc78c47bf4ac87ff4758b7, type: 2}
  - m_RefCount: 1
    m_Data: {fileID: 11400000, guid: 850945f10117a7945bc029a06056ac24, type: 2}
  - m_RefCount: 1
    m_Data: {fileID: 11400000, guid: b6236ff7b9a4df444bd6df67f062eff9, type: 2}
  - m_RefCount: 1
    m_Data: {fileID: 11400000, guid: 4fa369ba7d63fbf4aa343470d7f47804, type: 2}
  - m_RefCount: 1
    m_Data: {fileID: 11400000, guid: 7bfd5b33d53dbeb41b86bdd0daff125a, type: 2}
  - m_RefCount: 1
    m_Data: {fileID: 11400000, guid: 46495f839358f2c40a0d3d90cd75c564, type: 2}
  - m_RefCount: 1
    m_Data: {fileID: 11400000, guid: 661fe7683285ab445bbc14a7c5a06df5, type: 2}
  - m_RefCount: 1
    m_Data: {fileID: 11400000, guid: e925d08e7428bcb4f8ebc25b9146397f, type: 2}
  - m_RefCount: 1
    m_Data: {fileID: 11400000, guid: a790b94136d0f69409b11b71cba06ed2, type: 2}
  - m_RefCount: 1
    m_Data: {fileID: 11400000, guid: d8f0994b90534b14e9d41d50d8cebbe6, type: 2}
  - m_RefCount: 1
    m_Data: {fileID: 11400000, guid: a621e24bb79979949a16cd680238d215, type: 2}
  - m_RefCount: 1
    m_Data: {fileID: 11400000, guid: 5ad0e523af1c25c4098631f21704c238, type: 2}
  - m_RefCount: 1
    m_Data: {fileID: 11400000, guid: 576ce167f4557d6419a2f2edf8e01380, type: 2}
  - m_RefCount: 1
    m_Data: {fileID: 11400000, guid: 27006223b55f0714ea419c77c7c857f2, type: 2}
  - m_RefCount: 1
    m_Data: {fileID: 11400000, guid: 2cb15f232570dd24592bf9d31b4b73dc, type: 2}
  - m_RefCount: 1
    m_Data: {fileID: 11400000, guid: f12b627c1314aeb4998f8661934b8891, type: 2}
  - m_RefCount: 1
    m_Data: {fileID: 11400000, guid: 07c9319ed6e8632448a76850ab81aa98, type: 2}
  - m_RefCount: 1
    m_Data: {fileID: 11400000, guid: 72c2f2a3e14aa7f4e8a5966dd8df774f, type: 2}
  - m_RefCount: 1
    m_Data: {fileID: 11400000, guid: 467e83b7e6780e2489870c16937c2b0c, type: 2}
  - m_RefCount: 1
    m_Data: {fileID: 11400000, guid: 34196149ff111114aaa2f742047a3b8d, type: 2}
  - m_RefCount: 1
    m_Data: {fileID: 11400000, guid: b5bc9077392d81f48a58fafac1a20c80, type: 2}
  - m_RefCount: 1
    m_Data: {fileID: 11400000, guid: bac95ca0edcd8a24d91d4cf324ac2b4a, type: 2}
  - m_RefCount: 1
    m_Data: {fileID: 11400000, guid: 48a23690b4247f64e854da041bb7fff7, type: 2}
  - m_RefCount: 1
    m_Data: {fileID: 11400000, guid: 9152ac024875694428d5582acc15d206, type: 2}
  - m_RefCount: 1
    m_Data: {fileID: 11400000, guid: 462fc221f14c41d4e909b53130f861ae, type: 2}
  - m_RefCount: 1
    m_Data: {fileID: 11400000, guid: e5eed9424c6b1bd44be0781b5d561d7b, type: 2}
  - m_RefCount: 1
    m_Data: {fileID: 11400000, guid: 8e0d2f13bec61a54ea9fe245442adfc6, type: 2}
  - m_RefCount: 1
    m_Data: {fileID: 11400000, guid: 17494e4d3e688d14e85fd29b69bb64cd, type: 2}
  - m_RefCount: 1
    m_Data: {fileID: 11400000, guid: 564a64b321f35444d838a81f82731285, type: 2}
  - m_RefCount: 1
    m_Data: {fileID: 11400000, guid: 247e40ad0c16bf24e9d51dcd6f977f43, type: 2}
  - m_RefCount: 1
    m_Data: {fileID: 11400000, guid: 8837006377152d5469b62db870e827cb, type: 2}
  - m_RefCount: 1
    m_Data: {fileID: 11400000, guid: e91af5a2b0746aa4c86109c9c50d947f, type: 2}
  m_TileSpriteArray:
  - m_RefCount: 1
    m_Data: {fileID: 6530179738444782934, guid: 222ef433a3de83b479ac6b8c6c8995fd, type: 3}
  - m_RefCount: 1
    m_Data: {fileID: 613435604629981061, guid: 222ef433a3de83b479ac6b8c6c8995fd, type: 3}
  - m_RefCount: 1
    m_Data: {fileID: -3656531271222932061, guid: 222ef433a3de83b479ac6b8c6c8995fd, type: 3}
  - m_RefCount: 1
    m_Data: {fileID: 3930011312167392660, guid: 222ef433a3de83b479ac6b8c6c8995fd, type: 3}
  - m_RefCount: 1
    m_Data: {fileID: -96796154962138083, guid: 222ef433a3de83b479ac6b8c6c8995fd, type: 3}
  - m_RefCount: 1
    m_Data: {fileID: -7054820123952135176, guid: 222ef433a3de83b479ac6b8c6c8995fd, type: 3}
  - m_RefCount: 1
    m_Data: {fileID: 4530623484691778272, guid: 222ef433a3de83b479ac6b8c6c8995fd, type: 3}
  - m_RefCount: 1
    m_Data: {fileID: -5581956015464806101, guid: 222ef433a3de83b479ac6b8c6c8995fd, type: 3}
  - m_RefCount: 1
    m_Data: {fileID: -2661919970533589962, guid: 222ef433a3de83b479ac6b8c6c8995fd, type: 3}
  - m_RefCount: 1
    m_Data: {fileID: 3038985000587531000, guid: 222ef433a3de83b479ac6b8c6c8995fd, type: 3}
  - m_RefCount: 1
    m_Data: {fileID: 3216594195550930655, guid: 222ef433a3de83b479ac6b8c6c8995fd, type: 3}
  - m_RefCount: 1
    m_Data: {fileID: -3701851516310602662, guid: 222ef433a3de83b479ac6b8c6c8995fd, type: 3}
  - m_RefCount: 1
    m_Data: {fileID: 5893540339403691780, guid: 222ef433a3de83b479ac6b8c6c8995fd, type: 3}
  - m_RefCount: 1
    m_Data: {fileID: -1254599994303000284, guid: 222ef433a3de83b479ac6b8c6c8995fd, type: 3}
  - m_RefCount: 1
    m_Data: {fileID: 1949730731670058941, guid: 222ef433a3de83b479ac6b8c6c8995fd, type: 3}
  - m_RefCount: 1
    m_Data: {fileID: -3627854407871609761, guid: 222ef433a3de83b479ac6b8c6c8995fd, type: 3}
  - m_RefCount: 1
    m_Data: {fileID: -1888837539432032468, guid: 222ef433a3de83b479ac6b8c6c8995fd, type: 3}
  - m_RefCount: 1
    m_Data: {fileID: -1796502737815246115, guid: 222ef433a3de83b479ac6b8c6c8995fd, type: 3}
  - m_RefCount: 1
    m_Data: {fileID: 8636805145482191278, guid: 222ef433a3de83b479ac6b8c6c8995fd, type: 3}
  - m_RefCount: 1
    m_Data: {fileID: -2218698658706304759, guid: 222ef433a3de83b479ac6b8c6c8995fd, type: 3}
  - m_RefCount: 1
    m_Data: {fileID: 2562169664635839239, guid: 222ef433a3de83b479ac6b8c6c8995fd, type: 3}
  - m_RefCount: 1
    m_Data: {fileID: -4946619765975422720, guid: 222ef433a3de83b479ac6b8c6c8995fd, type: 3}
  - m_RefCount: 1
    m_Data: {fileID: 2281915828476810391, guid: 222ef433a3de83b479ac6b8c6c8995fd, type: 3}
  - m_RefCount: 1
    m_Data: {fileID: -1460219255197261928, guid: 222ef433a3de83b479ac6b8c6c8995fd, type: 3}
  - m_RefCount: 1
    m_Data: {fileID: -272350928928935694, guid: 222ef433a3de83b479ac6b8c6c8995fd, type: 3}
  - m_RefCount: 1
    m_Data: {fileID: 3647273195039021549, guid: 222ef433a3de83b479ac6b8c6c8995fd, type: 3}
  - m_RefCount: 1
    m_Data: {fileID: 3504542958272820299, guid: 222ef433a3de83b479ac6b8c6c8995fd, type: 3}
  - m_RefCount: 1
    m_Data: {fileID: 6202079318447832090, guid: 222ef433a3de83b479ac6b8c6c8995fd, type: 3}
  - m_RefCount: 1
    m_Data: {fileID: 6217686846738184359, guid: 222ef433a3de83b479ac6b8c6c8995fd, type: 3}
  - m_RefCount: 1
    m_Data: {fileID: -3807297515833748856, guid: 222ef433a3de83b479ac6b8c6c8995fd, type: 3}
  - m_RefCount: 1
    m_Data: {fileID: 4372381551759688375, guid: 222ef433a3de83b479ac6b8c6c8995fd, type: 3}
  - m_RefCount: 1
    m_Data: {fileID: -8302254863492273045, guid: 222ef433a3de83b479ac6b8c6c8995fd, type: 3}
  - m_RefCount: 1
    m_Data: {fileID: -863169582964885348, guid: 222ef433a3de83b479ac6b8c6c8995fd, type: 3}
  - m_RefCount: 1
    m_Data: {fileID: -832198905909771304, guid: 222ef433a3de83b479ac6b8c6c8995fd, type: 3}
  - m_RefCount: 1
    m_Data: {fileID: 662046916731068474, guid: 222ef433a3de83b479ac6b8c6c8995fd, type: 3}
  - m_RefCount: 1
    m_Data: {fileID: -5679681372999991991, guid: 222ef433a3de83b479ac6b8c6c8995fd, type: 3}
  - m_RefCount: 1
    m_Data: {fileID: 21300000, guid: 66d118545dad6564fa02610973c5f1cb, type: 3}
  m_TileMatrixArray:
  - m_RefCount: 37
    m_Data:
      e00: 1
      e01: 0
      e02: 0
      e03: 0
      e10: 0
      e11: 1
      e12: 0
      e13: 0
      e20: 0
      e21: 0
      e22: 1
      e23: 0
      e30: 0
      e31: 0
      e32: 0
      e33: 1
  m_TileColorArray:
  - m_RefCount: 37
    m_Data: {r: 1, g: 1, b: 1, a: 1}
  m_TileObjectToInstantiateArray: []
  m_AnimationFrameRate: 1
  m_Color: {r: 1, g: 1, b: 1, a: 1}
  m_Origin: {x: -2, y: -5, z: 0}
  m_Size: {x: 8, y: 6, z: 1}
  m_TileAnchor: {x: 0.5, y: 0.5, z: 0}
  m_TileOrientation: 0
  m_TileOrientationMatrix:
    e00: 1
    e01: 0
    e02: 0
    e03: 0
    e10: 0
    e11: 1
    e12: 0
    e13: 0
    e20: 0
    e21: 0
    e22: 1
    e23: 0
    e30: 0
    e31: 0
    e32: 0
    e33: 1
--- !u!483693784 &3586388716469919300
TilemapRenderer:
  m_ObjectHideFlags: 0
  m_CorrespondingSourceObject: {fileID: 0}
  m_PrefabInstance: {fileID: 0}
  m_PrefabAsset: {fileID: 0}
  m_GameObject: {fileID: 6891346687552380250}
  m_Enabled: 1
  m_CastShadows: 0
  m_ReceiveShadows: 0
  m_DynamicOccludee: 0
  m_MotionVectors: 1
  m_LightProbeUsage: 0
  m_ReflectionProbeUsage: 0
  m_RayTracingMode: 0
  m_RayTraceProcedural: 0
  m_RenderingLayerMask: 1
  m_RendererPriority: 0
  m_Materials:
  - {fileID: 10754, guid: 0000000000000000f000000000000000, type: 0}
  m_StaticBatchInfo:
    firstSubMesh: 0
    subMeshCount: 0
  m_StaticBatchRoot: {fileID: 0}
  m_ProbeAnchor: {fileID: 0}
  m_LightProbeVolumeOverride: {fileID: 0}
  m_ScaleInLightmap: 1
  m_ReceiveGI: 1
  m_PreserveUVs: 0
  m_IgnoreNormalsForChartDetection: 0
  m_ImportantGI: 0
  m_StitchLightmapSeams: 1
  m_SelectedEditorRenderState: 0
  m_MinimumChartSize: 4
  m_AutoUVMaxDistance: 0.5
  m_AutoUVMaxAngle: 89
  m_LightmapParameters: {fileID: 0}
  m_SortingLayerID: 0
  m_SortingLayer: 0
  m_SortingOrder: 0
  m_ChunkSize: {x: 32, y: 32, z: 32}
  m_ChunkCullingBounds: {x: 0, y: 0, z: 0}
  m_MaxChunkCount: 16
  m_MaxFrameAge: 16
  m_SortOrder: 0
  m_Mode: 0
  m_DetectChunkCullingBounds: 0
  m_MaskInteraction: 0
--- !u!1 &7720279741071394214
GameObject:
  m_ObjectHideFlags: 0
  m_CorrespondingSourceObject: {fileID: 0}
  m_PrefabInstance: {fileID: 0}
  m_PrefabAsset: {fileID: 0}
  serializedVersion: 6
  m_Component:
  - component: {fileID: 4779725961707120858}
  - component: {fileID: 6023734301972511758}
  m_Layer: 31
  m_Name: New Palette
  m_TagString: Untagged
  m_Icon: {fileID: 0}
  m_NavMeshLayer: 0
  m_StaticEditorFlags: 0
  m_IsActive: 1
--- !u!4 &4779725961707120858
Transform:
  m_ObjectHideFlags: 0
  m_CorrespondingSourceObject: {fileID: 0}
  m_PrefabInstance: {fileID: 0}
  m_PrefabAsset: {fileID: 0}
  m_GameObject: {fileID: 7720279741071394214}
  m_LocalRotation: {x: 0, y: 0, z: 0, w: 1}
  m_LocalPosition: {x: 0, y: 0, z: 0}
  m_LocalScale: {x: 1, y: 1, z: 1}
  m_Children:
  - {fileID: 8089415104412559975}
  m_Father: {fileID: 0}
  m_RootOrder: 0
  m_LocalEulerAnglesHint: {x: 0, y: 0, z: 0}
--- !u!156049354 &6023734301972511758
Grid:
  m_ObjectHideFlags: 0
  m_CorrespondingSourceObject: {fileID: 0}
  m_PrefabInstance: {fileID: 0}
  m_PrefabAsset: {fileID: 0}
  m_GameObject: {fileID: 7720279741071394214}
  m_Enabled: 1
  m_CellSize: {x: 1, y: 1, z: 0}
  m_CellGap: {x: 0, y: 0, z: 0}
  m_CellLayout: 0
  m_CellSwizzle: 0
--- !u!114 &613259926635812169
MonoBehaviour:
  m_ObjectHideFlags: 0
  m_CorrespondingSourceObject: {fileID: 0}
  m_PrefabInstance: {fileID: 0}
  m_PrefabAsset: {fileID: 0}
  m_GameObject: {fileID: 0}
  m_Enabled: 1
  m_EditorHideFlags: 0
  m_Script: {fileID: 12395, guid: 0000000000000000e000000000000000, type: 0}
  m_Name: Palette Settings
  m_EditorClassIdentifier: 
  cellSizing: 0
  m_TransparencySortMode: 0
  m_TransparencySortAxis: {x: 0, y: 0, z: 1}
