%YAML 1.1
%TAG !u! tag:unity3d.com,2011:
--- !u!74 &7400000
AnimationClip:
  m_ObjectHideFlags: 0
  m_CorrespondingSourceObject: {fileID: 0}
  m_PrefabInstance: {fileID: 0}
  m_PrefabAsset: {fileID: 0}
  m_Name: Run
  serializedVersion: 6
  m_Legacy: 0
  m_Compressed: 0
  m_UseHighQualityCurve: 1
  m_RotationCurves: []
  m_CompressedRotationCurves: []
  m_EulerCurves: []
  m_PositionCurves: []
  m_ScaleCurves: []
  m_FloatCurves: []
  m_PPtrCurves:
  - curve:
    - time: 0
      value: {fileID: 9076240025961370441, guid: 60245d805c5cfae449b5e6d9abb943a1, type: 3}
    - time: 0.083333336
      value: {fileID: -3127324719085819422, guid: 60245d805c5cfae449b5e6d9abb943a1, type: 3}
    - time: 0.16666667
      value: {fileID: 8354300075382340858, guid: 60245d805c5cfae449b5e6d9abb943a1, type: 3}
    - time: 0.25
      value: {fileID: -3607640537393484467, guid: 60245d805c5cfae449b5e6d9abb943a1, type: 3}
    - time: 0.33333334
      value: {fileID: 9172181138875169433, guid: 60245d805c5cfae449b5e6d9abb943a1, type: 3}
    - time: 0.41666666
      value: {fileID: 8574182954476853400, guid: 60245d805c5cfae449b5e6d9abb943a1, type: 3}
    - time: 0.5
      value: {fileID: 6677715732853451020, guid: 60245d805c5cfae449b5e6d9abb943a1, type: 3}
    - time: 0.5833333
      value: {fileID: 1130857293186551762, guid: 60245d805c5cfae449b5e6d9abb943a1, type: 3}
    - time: 0.6666667
      value: {fileID: 4608735820066487545, guid: 60245d805c5cfae449b5e6d9abb943a1, type: 3}
    attribute: m_Sprite
    path: 
    classID: 212
    script: {fileID: 0}
  m_SampleRate: 12
  m_WrapMode: 0
  m_Bounds:
    m_Center: {x: 0, y: 0, z: 0}
    m_Extent: {x: 0, y: 0, z: 0}
  m_ClipBindingConstant:
    genericBindings:
    - serializedVersion: 2
      path: 0
      attribute: 0
      script: {fileID: 0}
      typeID: 212
      customType: 23
      isPPtrCurve: 1
    pptrCurveMapping:
    - {fileID: 9076240025961370441, guid: 60245d805c5cfae449b5e6d9abb943a1, type: 3}
    - {fileID: -3127324719085819422, guid: 60245d805c5cfae449b5e6d9abb943a1, type: 3}
    - {fileID: 8354300075382340858, guid: 60245d805c5cfae449b5e6d9abb943a1, type: 3}
    - {fileID: -3607640537393484467, guid: 60245d805c5cfae449b5e6d9abb943a1, type: 3}
    - {fileID: 9172181138875169433, guid: 60245d805c5cfae449b5e6d9abb943a1, type: 3}
    - {fileID: 8574182954476853400, guid: 60245d805c5cfae449b5e6d9abb943a1, type: 3}
    - {fileID: 6677715732853451020, guid: 60245d805c5cfae449b5e6d9abb943a1, type: 3}
    - {fileID: 1130857293186551762, guid: 60245d805c5cfae449b5e6d9abb943a1, type: 3}
    - {fileID: 4608735820066487545, guid: 60245d805c5cfae449b5e6d9abb943a1, type: 3}
  m_AnimationClipSettings:
    serializedVersion: 2
    m_AdditiveReferencePoseClip: {fileID: 0}
    m_AdditiveReferencePoseTime: 0
    m_StartTime: 0
    m_StopTime: 0.75
    m_OrientationOffsetY: 0
    m_Level: 0
    m_CycleOffset: 0
    m_HasAdditiveReferencePose: 0
    m_LoopTime: 1
    m_LoopBlend: 0
    m_LoopBlendOrientation: 0
    m_LoopBlendPositionY: 0
    m_LoopBlendPositionXZ: 0
    m_KeepOriginalOrientation: 0
    m_KeepOriginalPositionY: 1
    m_KeepOriginalPositionXZ: 0
    m_HeightFromFeet: 0
    m_Mirror: 0
  m_EditorCurves: []
  m_EulerEditorCurves: []
  m_HasGenericRootTransform: 0
  m_HasMotionFloatCurves: 0
  m_Events: []
